<svg width="18" height="18" viewBox="0 0 18 18" fill="none" xmlns="http://www.w3.org/2000/svg">
<path fill-rule="evenodd" clip-rule="evenodd" d="M2.01716 16.0796L2.81254 16.875L9.56254 10.125L16.3125 16.875L17.1079 16.0796L9.96079 8.93138H9.16429L2.01716 16.0796ZM2.01716 9.32963L2.81254 10.125L9.56254 3.375L16.3125 10.125L17.1079 9.32963L9.96079 2.18138L9.16429 2.18138L2.01716 9.32963Z" fill="black"/>
</svg>
